<?xml version="1.0" encoding="UTF-8"?>
<svg id="Layer_1" data-name="Layer 1" xmlns="http://www.w3.org/2000/svg" viewBox="0 0 90 90">
  <defs>
    <style>
      .cls-1 {
        isolation: isolate;
      }

      .cls-2 {
        fill: #552f91;
      }

      .cls-3 {
        fill: #f2f2f2;
      }
    </style>
  </defs>
  <g id="Grupo_199" data-name="Grupo 199">
    <g id="União_1-2" data-name="União 1-2">
      <path class="cls-2" d="m51.75,76.26c-17.52,3.91-34.89-7.13-38.8-24.65s7.13-34.9,24.65-38.8c17.52-3.91,34.89,7.13,38.8,24.65,2.03,9.13.04,18.69-5.47,26.24l6.9,14.28-26.08-1.72Z"/>
    </g>
    <g id="_" data-name=" " class="cls-1">
      <g class="cls-1">
        <path class="cls-3" d="m41.95,46.67c.33-.72.75-1.29,1.26-1.72.51-.43,1.17-.92,2-1.48.75-.48,1.33-.9,1.76-1.26.43-.36.79-.8,1.08-1.32.29-.52.44-1.15.44-1.9,0-1.28-.35-2.29-1.06-3.04-.71-.75-1.67-1.12-2.9-1.12-1.47,0-2.6.47-3.4,1.42-.8.95-1.21,2.29-1.24,4.02h-5.24c.03-2.08.45-3.85,1.26-5.3s1.99-2.55,3.54-3.3c1.55-.75,3.43-1.12,5.64-1.12,1.97,0,3.71.35,5.22,1.04,1.51.69,2.67,1.65,3.5,2.88s1.24,2.61,1.24,4.16c0,1.28-.23,2.34-.68,3.18-.45.84-1,1.5-1.64,1.98-.64.48-1.51,1.01-2.6,1.6-.8.45-1.42.83-1.86,1.14-.44.31-.82.69-1.14,1.14-.32.45-.48,1.01-.48,1.68h-5.08c-.08-1.07.05-1.96.38-2.68Zm-.48,10.92c-.6-.56-.9-1.37-.9-2.44s.3-1.93.9-2.52c.6-.59,1.49-.88,2.66-.88s2.1.29,2.7.88c.6.59.9,1.43.9,2.52s-.3,1.88-.9,2.44c-.6.56-1.5.84-2.7.84s-2.06-.28-2.66-.84Z"/>
      </g>
    </g>
  </g>
</svg>